Year,Temperature departure,Warmest year ranking,Climate,Dividing Climate
1948,-0.2,53,Cool,Normal cool
1949,-0.2,54,Cool,Normal cool
1950,-1.3,70,Cool,Normal cool
1951,-0.6,65,Cool,Normal cool
1952,0.8,19,Hot,High hot
1953,0.8,20,Hot,High hot
1954,0.2,44,Hot,Normal hot
1955,-0.2,52,Cool,Normal cool
1956,-0.8,68,Cool,High cool
1957,-0.3,60,Cool,Normal cool
1958,-0.2,57,Cool,Normal cool
1959,-0.1,46,Cool,Normal cool
1960,0.2,37,Hot,Normal hot
1961,-0.6,64,Cool,High cool
1962,-0.6,66,Cool,High cool
1963,-0.3,59,Cool,Normal cool
1964,-0.4,62,Cool,Normal cool
1965,-0.2,56,Cool,Normal cool
1966,-0.1,45,Cool,Normal cool
1967,-2,71,Cool,High cool
1968,0.6,23,Cool,High hot
1969,-0.8,67,Cool,High cool
1970,-0.1,49,Cool,Normal cool
1971,0.5,41,Hot,Normal hot
1972,1,15,Hot,High hot
1973,-0.5,63,Cool,Normal cool
1974,-0.2,55,Cool,Normal cool
1975,0.4,34,Hot,Normal hot
1976,2.1,5,Hot,High hot
1977,-1.2,69,Cool,High cool
1978,0.1,40,Hot,Normal hot
1979,0.2,38,Hot,Normal hot
1980,0.1,47,Hot,Normal hot
1981,0.3,43,Hot,Normal hot
1982,1.5,11,Hot,High hot
1983,0.8,21,Hot,High hot
1984,-0.2,58,Cool,Normal cool
1985,-0.1,51,Cool,Normal cool
1986,0.4,33,Hot,Normal hot
1987,-0.1,50,Cool,Normal cool
1988,0.4,35,Hot,Normal hot
1989,0.5,31,Hot,Normal hot
1990,0.6,27,Hot,High hot
1991,0.4,48,Hot,Normal hot
1992,0.6,25,Hot,High hot
1993,2.3,3,Hot,High hot
1994,1.8,7,Hot,High hot
1995,0.5,28,Hot,Normal hot
1996,1.1,14,Hot,High hot
1997,0.8,17,Hot,High hot
1998,0.6,24,Hot,High hot
1999,0.6,26,Hot,High hot
2000,1.3,13,Hot,High hot
2001,2.1,4,Hot,High hot
2002,1.5,10,Hot,High hot
2003,0.5,29,Hot,Normal hot
